{
    "data.train": "data/Humans-TI.csv",
    "data.test": "data/Humans-TI.csv",
    "corresponding_data": false,
    "domains": ["spacional-relational"],
    "response_types": ["single-choice"],
    "models": [
        "models/Transitive-Inference/SCT.py",
        "models/Transitive-Inference/SCTinterpr.py",
        "models/Transitive-Inference/siemannDelius.py",
        "models/Transitive-Inference/rescorlaWagnerWynne95.py",
        "models/Transitive-Inference/Trabasso.py",
        "models/Transitive-Inference/DeSoto.py",
        "models/Transitive-Inference/valueTransferTheory1.py",
        "models/Transitive-Inference/valueTransferTheory2.py",
        "models/Transitive-Inference/valueTransferTheory3.py",
        "models/Baseline/Rational/trueAnswer.py",
        "models/Baseline/Random-Model/random_model.py"
    ]
}
