Syllogism,Percentage
AA1,88
AA2,54
AA3,31
AA4,16
AI1,16
AI2,90
AI3,37
AI4,83
AE1,87
AE2,1
AE3,81
AE4,8
AO1,14
AO2,17
AO3,40
AO4,54
IA1,88
IA2,12
IA3,28
IA4,81
II1,33
II2,30
II3,51
II4,61
IE1,44
IE2,13
IE3,20
IE4,28
IO1,33
IO2,49
IO3,53
IO4,54
EA1,3
EA2,78
EA3,80
EA4,9
EI1,44
EI2,13
EI3,20
EI4,28
EE1,44
EE2,44
EE3,76
EE4,66
EO1,28
EO2,47
EO3,49
EO4,57
OA1,20
OA2,13
OA3,36
OA4,42
OI1,36
OI2,31
OI3,49
OI4,47
OE1,37
OE2,51
OE3,47
OE4,49
OO1,37
OO2,42
OO3,64
OO4,66
